Chapter 4 Missing values | IMDB Movies Rating Analysis
…
            IMDB Movies Rating Analysis

Chapter 4 Missing values

4.1 Missing value recognition

First we need to understand how the NA is encoded in the dataset. So we calculate the most common value among each colomns:

## # A tibble: 446 × 3
## # Groups:   name [33]
##    name          value nunique
##    <chr>         <chr>   <int>
##  1 averageRating 6.4       142
##  2 averageRating 6.2       136
##  3 averageRating 6.6       132
##  4 averageRating 7         132
##  5 averageRating 6.7       123
##  6 averageRating 7.3       119
##  7 averageRating 6.5       118
##  8 averageRating 6.1       117
##  9 averageRating 6.3       116
## 10 averageRating 6.8       115
## # … with 436 more rows
…
有超过60%的rows都出现了 endYear pattern的缺失，但是没关系

## # A tibble: 1,195,712 × 11
##    tconst    averageRating numVotes titleType primaryTitle originalTitle isAdult
##    <chr>             <dbl>    <int> <chr>     <chr>        <chr>           <int>
##  1 tt0000001           5.7     1836 short     Carmencita   Carmencita          0
##  2 tt0000002           6        236 short     Le clown et… Le clown et …       0
##  3 tt0000003           6.5     1597 short     Pauvre Pier… Pauvre Pierr…       0
##  4 tt0000004           6        153 short     Un bon bock  Un bon bock         0
##  5 tt0000005           6.2     2412 short     Blacksmith … Blacksmith S…       0
##  6 tt0000006           5.2      158 short     Chinese Opi… Chinese Opiu…       0
##  7 tt0000007           5.4      755 short     Corbett and… Corbett and …       0
##  8 tt0000008           5.5     1982 short     Edison Kine… Edison Kinet…       0
##  9 tt0000009           5.9      191 short     Miss Jerry   Miss Jerry          0
## 10 tt0000010           6.9     6606 short     Leaving the… La sortie de…       0
## # … with 1,195,702 more rows, and 4 more variables: startYear <chr>,
## #   endYear <chr>, runtimeMinutes <chr>, genres <chr>
